…
``` r
nyc_squirrels <- nyc_squirrels_raw %>% mutate(shift = as_factor(shift),
                                              date = mdy(date),
                                              age = fct_explicit_na(fct_relevel(age,"Juvenile")),
                                              primary_fur_color = fct_explicit_na(primary_fur_color),
                                              #highlight_fur_color = fct_explicit_na(highlight_fur_color))
                                              location = fct_explicit_na(fct_relevel(location,"Ground Plane")))
# Only interested in the below variables
nyc_squirrels <- nyc_squirrels %>%  select(age,primary_fur_color,location,running,chasing,climbing,eating,foraging, kuks,tail_flags,approaches,indifferent,runs_from)

nyc_squirrels
```

    ## # A tibble: 3,023 x 13
    ##    age   primary_fur_col… location running chasing climbing eating foraging
    ##    <fct> <fct>            <fct>    <lgl>   <lgl>   <lgl>    <lgl>  <lgl>   
    ##  1 (Mis… (Missing)        (Missin… FALSE   FALSE   FALSE    FALSE  FALSE   
    ##  2 Adult Gray             Ground … TRUE    FALSE   FALSE    FALSE  FALSE   
    ##  3 Adult Cinnamon         Above G… FALSE   FALSE   TRUE     FALSE  FALSE   
    ##  4 Juve… Gray             Above G… FALSE   FALSE   TRUE     FALSE  FALSE   
    ##  5 (Mis… (Missing)        Above G… FALSE   FALSE   FALSE    FALSE  FALSE   
    ##  6 Juve… Gray             Ground … FALSE   FALSE   FALSE    FALSE  FALSE   
    ##  7 Adult Gray             Ground … TRUE    TRUE    FALSE    FALSE  FALSE   
    ##  8 (Mis… Gray             Ground … FALSE   FALSE   FALSE    FALSE  TRUE    
    ##  9 Adult Gray             Ground … FALSE   FALSE   FALSE    FALSE  TRUE    
    ## 10 Adult Gray             (Missin… FALSE   FALSE   FALSE    TRUE   TRUE    
    ## # … with 3,013 more rows, and 5 more variables: kuks <lgl>,
    ## #   tail_flags <lgl>, approaches <lgl>, indifferent <lgl>, runs_from <lgl>
…
